{
    "code": 10000,
    "content": {
        "extList": null,
        "list": [
            {
                "showname": "202003021103502246",
                "number": 4,
                "name": "liguos",
                "salenum": "202003021103502246",
                "time": "202003021103502246",
                "state": 3,
                "id": 6726
            },
            {
                "showname": "202003021031422246",
                "number": 3,
                "name": "liguos",
                "salenum": "202003021031422246",
                "time": "202003021031422246",
                "state": 3,
                "id": 6725
            },
            {
                "showname": "202002280122452246",
                "number": 1,
                "name": "liguos",
                "salenum": "202002280122452246",
                "time": "202002280122452246",
                "state": 3,
                "id": 6724
            },
            {
                "showname": "202002281256462246",
                "number": 3,
                "name": "liguos",
                "salenum": "202002281256462246",
                "time": "202002281256462246",
                "state": 3,
                "id": 6723
            },
            {
                "showname": "202002270304152246",
                "number": 1,
                "name": "liguos",
                "salenum": "202002270304152246",
                "time": "202002270304152246",
                "state": 3,
                "id": 6722
            },
            {
                "showname": "202002250409372483",
                "number": 8,
                "name": "黎小红",
                "salenum": "202002250409372483",
                "time": "202002250409372483",
                "state": 3,
                "id": 6721
            },
            {
                "showname": "202002250407072483",
                "number": 8,
                "name": "黎小红",
                "salenum": "202002250407072483",
                "time": "202002250407072483",
                "state": 3,
                "id": 6720
            },
            {
                "showname": "202002250350442246",
                "number": 1,
                "name": "liguos",
                "salenum": "202002250350442246",
                "time": "202002250350442246",
                "state": 3,
                "id": 6719
            },
            {
                "showname": "202002250348512246",
                "number": 1,
                "name": "liguos",
                "salenum": "202002250348512246",
                "time": "202002250348512246",
                "state": 3,
                "id": 6718
            },
            {
                "showname": "202002250345152246",
                "number": 1,
                "name": "liguos",
                "salenum": "202002250345152246",
                "time": "202002250345152246",
                "state": 3,
                "id": 6717
            }
        ],
        "totalCount": 2825,
        "pageNo": 1,
        "pageSize": 10,
        "totalPages": 283
    }
}